lab6
…
# A tibble: 6 × 3
  description                                    medical_specialty transcription
  <chr>                                          <chr>             <chr>        
1 A 23-year-old white female presents with comp… Allergy / Immuno… "SUBJECTIVE:…
2 Consult for laparoscopic gastric bypass.       Bariatrics        "PAST MEDICA…
3 Consult for laparoscopic gastric bypass.       Bariatrics        "HISTORY OF …
4 2-D M-Mode. Doppler.                           Cardiovascular /… "2-D M-MODE:…
5 2-D Echocardiogram                             Cardiovascular /… "1.  The lef…
6 Morbid obesity.  Laparoscopic antecolic anteg… Bariatrics        "PREOPERATIV…

#question 1 
mt_samples %>%
  count(medical_specialty, sort = TRUE)

# A tibble: 40 × 2
   medical_specialty                 n
   <chr>                         <int>
 1 Surgery                        1103
 2 Consult - History and Phy.      516
 3 Cardiovascular / Pulmonary      372
 4 Orthopedic                      355
 5 Radiology                       273
 6 General Medicine                259
 7 Gastroenterology                230
 8 Neurology                       223
 9 SOAP / Chart / Progress Notes   166
10 Obstetrics / Gynecology         160
# ℹ 30 more rows
…
# Tri-grams
mt_samples %>%
  unnest_tokens(trigram, transcription, token = "ngrams", n = 3) %>%
  count(trigram, sort = TRUE) %>%
  top_n(20, n)

# A tibble: 22 × 2
   trigram                n
   <chr>              <int>
 1 the patient was     6104
 2 the patient is      3075
 3 as well as          2243
 4 there is no         1678
 5 the operating room  1532
 6 patient is a        1491
 7 prepped and draped  1490
 8 was used to         1480
 9 and draped in       1372
10 at this time        1333
# ℹ 12 more rows

With bigrams, we see common pairs like the patient, of the, in the. When we move to trigrams, phrases become more specific, like the patient was, the operating room, at this time. So bigrams still show a lot of stopword pairs, while trigrams start to capture more meaningful clinical phrases.

#question 5
mt_samples %>%
  unnest_tokens(bigram, transcription, token = "ngrams", n=2) %>%
  separate(bigram, c("word1", "word2"), sep=" ") %>%
  filter(word1 == "patient" | word2 == "patient") %>%
  count(word1, word2, sort = TRUE)

# A tibble: 856 × 3
   word1   word2         n
   <chr>   <chr>     <int>
 1 the     patient   20307
 2 patient was        6293
 3 patient is         3332
 4 patient has        1417
 5 patient tolerated   994
 6 patient had         888
 7 patient will        616
 8 patient denies      552
 9 this    patient     470
10 patient and         377
# ℹ 846 more rows

#question 6
mt_samples %>%
  unnest_tokens(word, transcription) %>%
  anti_join(stop_words, by = "word") %>%
  filter(!grepl("^[0-9]+$", word)) %>%
  group_by(medical_specialty) %>%
  count(word, sort = TRUE) %>%
  top_n(5, n) %>%
  arrange(medical_specialty, desc(n))

# A tibble: 210 × 3
# Groups:   medical_specialty [40]
   medical_specialty    word          n
   <chr>                <chr>     <int>
 1 Allergy / Immunology history      38
 2 Allergy / Immunology noted        23
 3 Allergy / Immunology patient      22
 4 Allergy / Immunology allergies    21
 5 Allergy / Immunology nasal        13
 6 Allergy / Immunology past         13
 7 Autopsy              left         83
 8 Autopsy              inch         59
 9 Autopsy              neck         55
10 Autopsy              anterior     47
# ℹ 200 more rows
…
